qst_deliver_message|Entregar el mensaje a {s13}.
qst_deliver_message_to_enemy_lord|Entregar el mensaje a {s13}.
qst_raise_troops|Reunir {reg1} {s14}.
qst_escort_lady|Escoltar a {s13} a {s14}.
qst_deal_with_bandits_at_lords_village|Salvar la aldea de {s15} de los bandidos merodeadores
qst_collect_taxes|Recaudar los impuestos de {s3}
qst_hunt_down_fugitive|Dar caza a {s4}.
qst_kill_local_merchant|Asesinar a un mercader local en {s3}.
qst_bring_back_runaway_serfs|Capturar a los siervos fugitivos.
qst_follow_spy|Seguir al espía.
qst_capture_enemy_hero|Capturar a un Señor de {s13}.
qst_lend_companion|Prestar a vuestro compañero {s3} a {s9}.
qst_collect_debt|Recaudar la deuda que {s3} debe a {s9}.
qst_incriminate_loyal_commander|Incriminar al Comandante leal de {s13}, {s16}.
qst_meet_spy_in_enemy_town|Encontraos con el espía en {s13}.
qst_capture_prisoners|Traer {reg1} prisioneros {s3}.
qst_lend_surgeon|Prestar a vuestro cirujano, {s3}, a {s1}.
qst_follow_army|Seguir al ejército de {s9}.
qst_report_to_army|Reportar ante {s13}, el Mariscal.
qst_deliver_cattle_to_army|Entregar {reg3} cabezas de ganado a {s13}.
qst_join_siege_with_army|Uníos al asedio de {s14}.
qst_screen_army|Investigar el avance del ejército de {s13}.
qst_scout_waypoints|Explorar {s13}, {s14} y {s15}.
qst_rescue_lord_by_replace|Rescatar a {s13} de {s14}.
qst_deliver_message_to_prisoner_lord|Entregar el mensaje de {s13} en {s14}.
qst_duel_for_lady|Retar a {s13} a un duelo.
qst_duel_courtship_rival|r a {s13} a un duelo (opcional).
qst_duel_avenge_insult|Retar a {s13} a un duelo.
qst_move_cattle_herd|Trasladar el rebaño de ganado a {s13}.
qst_escort_merchant_caravan|Escoltar la caravana de mercancías hasta {s8}.
qst_deliver_wine|Entregar {reg5} unidades de {s6} a {s4}.
qst_troublesome_bandits|Dar caza a los bandidos problemáticos.
qst_kidnapped_girl|Pagar a los bandidos por el rescate de la doncella. 
qst_persuade_lords_to_make_peace|Aseguraos de que los Señores no impidan la paz.
qst_deal_with_looters|Ocupaos de los saqueadores.
qst_deal_with_night_bandits|Ocupaos de los bandidos nocturnos.
qst_deliver_grain|Llevar trigo a {s3}.
qst_deliver_cattle|Entregar {reg5} cabezas de ganado en {s3}
qst_train_peasants_against_bandits|Entrenar a los campesinos de {s13} para defenderse contra los bandidos.
qst_eliminate_bandits_infesting_village|Rescatar la aldea de {s7} de los bandidos merodeadores.
qst_visit_lady|Visitar a la dama.
qst_formal_marriage_proposal|Propuesta formal de matrimonio.
qst_obtain_liege_blessing|Propuesta formal de matrimonio.
qst_wed_betrothed|Desposar a vuestro prometido.
qst_wed_betrothed_female|Desposar a vuestra prometida.
qst_join_faction|Jurar lealtad a {s1}.
qst_rebel_against_kingdom|Ayudar a {s13} a reclamar el trono de {s14}.
qst_consult_with_minister|Consultar con el administrador.
qst_organize_feast|Organizar el banquete.
qst_resolve_dispute|Resolver la disputa.
qst_offer_gift|Procurar un regalo.
qst_denounce_lord|Denunciar a un Señor.
qst_intrigue_against_lord|Tramar contra un Señor.
qst_track_down_bandits|Rastrear a los bandidos.
qst_track_down_provocateurs|Rastrear a los provocadores.
qst_retaliate_for_border_incident|Tomar represalias por el incidente fronterizo.
qst_raid_caravan_to_start_war|Atacar a una caravana neutral para provocar una guerra.
qst_cause_provocation|Provocar a un reino para que ataque a otro.
qst_rescue_prisoner|Rescatar o pagar el rescate de un prisionero.
qst_destroy_bandit_lair|Destruir la guarida de los bandidos.
qst_collect_men|Reclutar cinco hombres.
qst_learn_where_merchant_brother_is|Descubrir la localización de los rehenes.
qst_save_relative_of_merchant|Atacar la guarida de los bandidos.
qst_save_town_from_bandits|Salvar a la ciudad de los bandidos.
qst_quests_end|Fin de las misiones.
qst_suker_collect_debt|Obtener el pago de Dranton.
qst_suker_collect_debt_text|Suker, el tabernero de Zendar, me ha dicho que Dranton le debe 50 monedas. Me ha pedido ayuda para recuperarlas.
qst_look_for_the_lost_fire_spar|Debo buscar la gema de fuego para Robin.
qst_look_for_the_lost_fire_spar_text|Robin, el herrero de Zendar, me ha pedido buscar la gema de fuego.
qst_nomad_armor_collected|Recoger las armaduras para Alix.
qst_nomad_armor_collected_text|Alix me ha pedido buscar gema de fuego perdida.
qst_find_oo_portraits|Buscar los retratos para Shoey.
qst_find_oo_portraits_text|Shoey me ha pedido ayuda para encontrar sus extraños retratos.
qst_hunt_down_river_pirates|Dar caza a los piratas del río.
qst_hunt_down_river_pirates_text|El contable Hareck me ha pedido dar caza a los piratas del río que merodean la zona. Me ha prometido 20 denares por cada grupo de piratas eliminado.
qst_jiao_fei|Cazar a los bandidos del bosque.
qst_jiao_fei_text|Se me ha pedido darles caza a los bandidos de la montaña por un pago de 500 monedas a cada grupo eliminado.
qst_jiao_fei_2|Destruye a los Khergitas negros asaltantes.
qst_jiao_fei_2_text|El jefe del mercado de monturas me ha pedido eliminar los asaltantes khergitas negros. Cada grupo eliminado tendrá una recompensa de 800 denares.
qst_dark_killer|Aniquilar a los vengadores oscuros.
qst_dark_killer_text|El conde Axis de Zendar me ha encomendado eliminar las fuerzas oscuras por 2000 denares el grupo. Recibiré recompensas extra por un trabajo bien hecho.
qst_ying_jiu|Rescatar al noble prisionero.
qst_ying_jiu_text|{s41} me dijo que {s43} había sido capturado. Debo rescatarlo.
qst_feer_soldiers|[Confianza de los mercenarios]
qst_feer_soldiers_text|Puedes contratar cazahombres hablando con el Maestro Guy en Zendar, y cada vez que eliminéis un grupo de bandidos como piratas, saqueadores o asaltantes negros Khergitas, habrá más cazahombres disponibles.
qst_eagle_eyes|[Ojo de Halcón]
qst_eagle_eyes_text|Podéis preguntarle a vuestro compañero con más habilidad de restreo por huellas de tropas, una vez al día. La precisión aumentará conforme lo haga la habilidad.
qst_hao_ling|[Gran Comandante]
qst_hao_ling_text|Vuestra brillante habilidad de liderazgo convierte a vuestro ejército en un grupo temible.
qst_po_di|[Influencia y Pánico]
qst_po_di_text|Vuestro coraje es la clave de la victoria, y vuestra hazañas os preceden. Vuestros enemigos huirán al veros.
qst_tong_shuai|[Liderazgo Superior]
qst_tong_shuai_text|Contáis con la admiración de cualquier noble gracias a vuestro liderazgo. Cuando les déis órdenes, os creerán y os obedecerán sin dudarlo.
qst_freedom_covenant|[Pacto de Libertad]
qst_freedom_covenant_text|Vuestro coraje y justicia se han ganado la confianza de los guerreros de la libertad. Cada vez que eliminéis a algún ejército oscuro o a sus aliados, el Conde Arrasies os dará una "[Medalla de la Caballería]" o "[Medalla de Valentía]". Si tenéis espadas a sueldo o caballería mercenaria en vuestra compañía, con esas medallas, hablad con el Maestro Guy y él los convertirá en grandes guerreros.
qst_mainline_quest|[Misión Principal]
qst_mainline_quest_text|Este texto se alterará según los acontecimientos.
